{
	"app": {
		"host": "http://0.0.0.0",
		"port": 21000,
		"https": {
			"key": "/path/to/key",
			"cert": "/path/to/crt"
		},
		"swagger": {
			"host": "0.0.0.0"
		},
		"logger": {
			"path": "",
			"error": {
				"maxFiles": 90,
				"maxSize": "100m"
			},
			"info": {
				"maxFiles": 30,
				"maxSize": "100m"
			},
			"debug": {
				"maxFiles": 1,
				"maxSize": "500m"
			}
		}
	},
	"elasticsearch": {
		"nodes": ["http://192.168.240.10:19200", "http://192.168.240.11:19200", "http://192.168.240.12:19200"]
	},
	"db": {
		"host": "192.168.241.10",
		"port": "19000",
		"user": "tpp",
		"pw": "dkdlqmflrtm1!",
		"database": "tpp"
	},
	"streamdocs": {
		"url": "http://222.122.110.104:19900/streamdocs/v4/documents/external-resources",
		"surveyFiltPath": "/NAS/ATTACH_FILE/DEMAND/"
	},
	"upload": {
		"temp": "/NAS/ADMIN/TEMP",
		"issueFilePath": "/NAS/ATTACH_FILE/ISSUE/",
		"surveyEzoneFiltPath": "/NAS/ATTACH_FILE/DEMAND/EZONE/",
		"surveyIrisFiltPath": "/NAS/ATTACH_FILE/DEMAND/IRIS/"
	}
}
